Data Cleaning
…
# Family Monthly Poverty Level Index (ratio of monthly family income to the HHS poverty guidelines specific to family size)
nhanes$povertyind <- NA
nhanes$povertyind[nhanes$indfmmpi < 5] <- 0 # index of 0-4.99
nhanes$povertyind[nhanes$indfmmpi == 5] <- 1 # index >= 5
nhanes$povertyind[nhanes$indfmmpi == "."] <- NA # missing, code as NA
nhanes %>% count(povertyind, indfmmpi)

## # A tibble: 464 × 3
##    povertyind indfmmpi     n
##         <dbl>    <dbl> <int>
##  1          0     0      344
##  2          0     0.02     3
##  3          0     0.03    11
##  4          0     0.05     2
##  5          0     0.06     7
##  6          0     0.07     2
##  7          0     0.08     2
##  8          0     0.09     1
##  9          0     0.1      2
## 10          0     0.11     3
## # … with 454 more rows

nhanes$poverty <- factor(nhanes$povertyind,
                     labels = c("Index of 0-4.99", "Index >=5"))

nhanes %>% count(povertyind, poverty, indfmmpi)

## # A tibble: 464 × 4
##    povertyind poverty         indfmmpi     n
##         <dbl> <fct>              <dbl> <int>
##  1          0 Index of 0-4.99     0      344
##  2          0 Index of 0-4.99     0.02     3
##  3          0 Index of 0-4.99     0.03    11
##  4          0 Index of 0-4.99     0.05     2
##  5          0 Index of 0-4.99     0.06     7
##  6          0 Index of 0-4.99     0.07     2
##  7          0 Index of 0-4.99     0.08     2
##  8          0 Index of 0-4.99     0.09     1
##  9          0 Index of 0-4.99     0.1      2
## 10          0 Index of 0-4.99     0.11     3
## # … with 454 more rows
…
